…
    ## [1] "COVID19_line_list_data.csv"         "COVID19_open_line_list.csv"        
    ## [3] "covid_19_data.csv"                  "time_series_covid_19_confirmed.csv"
    ## [5] "time_series_covid_19_deaths.csv"    "time_series_covid_19_recovered.csv"

``` r
covid_data <- read.csv(unz(input_data_container, "covid_19_data.csv"), 
                       na.strings = c("NA", "None", ""),
                       header = T, sep = ",")

covid_data %>% as_tibble
```

    ## # A tibble: 7,014 x 8
    ##      SNo ObservationDate Province.State Country.Region Last.Update     Confirmed Deaths Recovered
    ##    <int> <chr>           <chr>          <chr>          <chr>               <dbl>  <dbl>     <dbl>
    ##  1     1 01/22/2020      Anhui          Mainland China 1/22/2020 17:00         1      0         0
    ##  2     2 01/22/2020      Beijing        Mainland China 1/22/2020 17:00        14      0         0
    ##  3     3 01/22/2020      Chongqing      Mainland China 1/22/2020 17:00         6      0         0
    ##  4     4 01/22/2020      Fujian         Mainland China 1/22/2020 17:00         1      0         0
    ##  5     5 01/22/2020      Gansu          Mainland China 1/22/2020 17:00         0      0         0
    ##  6     6 01/22/2020      Guangdong      Mainland China 1/22/2020 17:00        26      0         0
    ##  7     7 01/22/2020      Guangxi        Mainland China 1/22/2020 17:00         2      0         0
    ##  8     8 01/22/2020      Guizhou        Mainland China 1/22/2020 17:00         1      0         0
    ##  9     9 01/22/2020      Hainan         Mainland China 1/22/2020 17:00         4      0         0
    ## 10    10 01/22/2020      Hebei          Mainland China 1/22/2020 17:00         1      0         0
    ## # … with 7,004 more rows
…
    ## dates processing
    observation_date = mdy(observation_date),
    last_update = parse_date_time(str_replace_all(last_update, "T", " "), 
                                  orders = c("%Y-%m-%d %H:%M:%S", "m/d/y %H:%M"))
  )
  

covid_data %>% as_tibble
```

    ## # A tibble: 7,014 x 9
    ##      sno observation_date province_state country_region last_update         confirmed deaths
    ##    <int> <date>           <chr>          <chr>          <dttm>                  <dbl>  <dbl>
    ##  1     1 2020-01-22       Anhui          Mainland China 2020-01-22 17:00:00         1      0
    ##  2     2 2020-01-22       Beijing        Mainland China 2020-01-22 17:00:00        14      0
    ##  3     3 2020-01-22       Chongqing      Mainland China 2020-01-22 17:00:00         6      0
    ##  4     4 2020-01-22       Fujian         Mainland China 2020-01-22 17:00:00         1      0
    ##  5     5 2020-01-22       Gansu          Mainland China 2020-01-22 17:00:00         0      0
    ##  6     6 2020-01-22       Guangdong      Mainland China 2020-01-22 17:00:00        26      0
    ##  7     7 2020-01-22       Guangxi        Mainland China 2020-01-22 17:00:00         2      0
    ##  8     8 2020-01-22       Guizhou        Mainland China 2020-01-22 17:00:00         1      0
    ##  9     9 2020-01-22       Hainan         Mainland China 2020-01-22 17:00:00         4      0
    ## 10    10 2020-01-22       Hebei          Mainland China 2020-01-22 17:00:00         1      0
    ## # … with 7,004 more rows, and 2 more variables: recovered <dbl>, area <fct>
…
spread_df %>% arrange(desc(observation_date))
```

    ## # A tibble: 232 x 5
    ## # Groups:   area [4]
    ##    area                observation_date confirmed_total deaths_total recovered_total
    ##    <fct>               <date>                     <dbl>        <dbl>           <dbl>
    ##  1 China without Hubei 2020-03-19                 13131         -115           12748
    ##  2 Hubei               2020-03-19                 67800        -3130           57682
    ##  3 Rest of World       2020-03-19                148102        -6422           14424
    ##  4 US                  2020-03-19                 13680         -200             108
    ##  5 China without Hubei 2020-03-18                 13106         -115           12726
    ##  6 Hubei               2020-03-18                 67800        -3122           56927
    ##  7 Rest of World       2020-03-18                126223        -5378           13554
    ##  8 US                  2020-03-18                  7786         -118             106
    ##  9 China without Hubei 2020-03-17                 13085         -115           12697
    ## 10 Hubei               2020-03-17                 67799        -3111           56003
    ## # … with 222 more rows
…
covid_daily %>% 
  filter(area == "Hubei") %>% 
  arrange(desc(observation_date))
```

    ## # A tibble: 58 x 4
    ##    area  observation_date retired_per_day infected_per_day
    ##    <fct> <date>                     <dbl>            <dbl>
    ##  1 Hubei 2020-03-19                   763                0
    ##  2 Hubei 2020-03-18                   935                1
    ##  3 Hubei 2020-03-17                   873                1
    ##  4 Hubei 2020-03-16                   868                4
    ##  5 Hubei 2020-03-15                  1338                4
    ##  6 Hubei 2020-03-14                  1420                4
    ##  7 Hubei 2020-03-13                  1241                5
    ##  8 Hubei 2020-03-12                  1194                8
    ##  9 Hubei 2020-03-11                  1413               13
    ## 10 Hubei 2020-03-10                  1271               17
    ## # … with 48 more rows
…
