…
View data:

``` r
covid_data %>% sample_n(100) %>% as_tibble
```

    ## # A tibble: 100 x 8
    ##      SNo ObservationDate Province.State    Country.Region Last.Update     Confirmed Deaths Recovered
    ##    <int> <chr>           <chr>             <chr>          <chr>               <dbl>  <dbl>     <dbl>
    ##  1  2289 02/25/2020      Zhejiang          Mainland China 2020-02-25T09:…      1205      1       808
    ##  2  1054 02/09/2020      Zhejiang          Mainland China 2020-02-09T12:…      1075      0       201
    ##  3  9968 03/23/2020      Nebraska          US             2020-03-23 23:…         0      0         0
    ##  4  8525 03/23/2020      South Carolina    US             2020-03-23 23:…         1      0         0
    ##  5  4473 03/09/2020      Jefferson County… US             2020-03-07T16:…         1      0         0
    ##  6  2376 02/25/2020      Tempe, AZ         US             2020-02-25T21:…         1      0         1
    ##  7  5247 03/13/2020      <NA>              Belarus        2020-03-11T20:…        27      0         3
    ##  8  9394 03/23/2020      Minnesota         US             2020-03-23 23:…         0      0         0
    ##  9  5244 03/13/2020      <NA>              Nigeria        2020-03-11T20:…         2      0         0
    ## 10  5650 03/15/2020      Jiangxi           Mainland China 2020-03-12T02:…       935      1       934
    ## # … with 90 more rows
…
    ## dates processing
    observation_date = mdy(observation_date),
    last_update = parse_date_time(str_replace_all(last_update, "T", " "), 
                                  orders = c("%Y-%m-%d %H:%M:%S", "m/d/y %H:%M"))
  )
  

covid_data %>% as_tibble
```

    ## # A tibble: 11,341 x 9
    ##      sno observation_date province_state country_region last_update         confirmed deaths
    ##    <int> <date>           <chr>          <chr>          <dttm>                  <dbl>  <dbl>
    ##  1     1 2020-01-22       Anhui          Mainland China 2020-01-22 17:00:00         1      0
    ##  2     2 2020-01-22       Beijing        Mainland China 2020-01-22 17:00:00        14      0
    ##  3     3 2020-01-22       Chongqing      Mainland China 2020-01-22 17:00:00         6      0
    ##  4     4 2020-01-22       Fujian         Mainland China 2020-01-22 17:00:00         1      0
    ##  5     5 2020-01-22       Gansu          Mainland China 2020-01-22 17:00:00         0      0
    ##  6     6 2020-01-22       Guangdong      Mainland China 2020-01-22 17:00:00        26      0
    ##  7     7 2020-01-22       Guangxi        Mainland China 2020-01-22 17:00:00         2      0
    ##  8     8 2020-01-22       Guizhou        Mainland China 2020-01-22 17:00:00         1      0
    ##  9     9 2020-01-22       Hainan         Mainland China 2020-01-22 17:00:00         4      0
    ## 10    10 2020-01-22       Hebei          Mainland China 2020-01-22 17:00:00         1      0
    ## # … with 11,331 more rows, and 2 more variables: recovered <dbl>, area <fct>
…
``` r
spread_df <- covid_data %>% 
  group_by(
    area, observation_date
  ) %>% 
  summarise(
    confirmed_total = sum(confirmed),
    deaths_total = sum(deaths),
    recovered_total = sum(recovered)
  )

spread_df %>% arrange(desc(observation_date))
```

    ## # A tibble: 248 x 5
    ## # Groups:   area [4]
    ##    area                observation_date confirmed_total deaths_total recovered_total
    ##    <fct>               <date>                     <dbl>        <dbl>           <dbl>
    ##  1 China without Hubei 2020-03-23                 13316          117           12827
    ##  2 Hubei               2020-03-23                 67800         3153           59882
    ##  3 Rest of World       2020-03-23                253504        12675           28249
    ##  4 US                  2020-03-23                 43667          552               0
    ##  5 China without Hubei 2020-03-22                 13260          117           12819
    ##  6 Hubei               2020-03-22                 67800         3144           59433
    ##  7 Rest of World       2020-03-22                221621        10956           25452
    ##  8 US                  2020-03-22                 33276          417             178
    ##  9 China without Hubei 2020-03-21                 13214          116           12803
    ## 10 Hubei               2020-03-21                 67800         3139           58946
    ## # … with 238 more rows
…
covid_daily %>% 
  filter(area == "Hubei") %>% 
  arrange(desc(observation_date))
```

    ## # A tibble: 62 x 4
    ##    area  observation_date retired_per_day infected_per_day
    ##    <fct> <date>                     <dbl>            <dbl>
    ##  1 Hubei 2020-03-23                   458                0
    ##  2 Hubei 2020-03-22                   492                0
    ##  3 Hubei 2020-03-21                   570                0
    ##  4 Hubei 2020-03-20                   703                0
    ##  5 Hubei 2020-03-19                   763                0
    ##  6 Hubei 2020-03-18                   935                1
    ##  7 Hubei 2020-03-17                   873                1
    ##  8 Hubei 2020-03-16                   868                4
    ##  9 Hubei 2020-03-15                  1338                4
    ## 10 Hubei 2020-03-14                  1420                4
    ## # … with 52 more rows
…
